<?xml version="1.0" encoding="utf-8"?>
<!-- Generator: Adobe Illustrator 27.0.1, SVG Export Plug-In . SVG Version: 6.00 Build 0)  -->
<svg version="1.1" id="Layer_1" xmlns="http://www.w3.org/2000/svg" xmlns:xlink="http://www.w3.org/1999/xlink" x="0px" y="0px"
	 width="306.5px" height="306.6px" viewBox="0 0 306.5 306.6" style="enable-background:new 0 0 306.5 306.6;" xml:space="preserve"
	>
<path d="M148,0C110.5,0.8,73.7,15.8,43.8,46.3C14.7,75.9,0,112,0,153.3c0,41.9,15.2,78.4,44.8,108.2c29.8,29.9,66.5,45.2,108.7,45.1
	c42.1-0.1,78.7-15.4,108.5-45.5s44.8-66.8,44.5-109.2C305.8,68.5,238.1,0.3,148,0z M154.2,120.9c0-9.1,0-18.1,0-27.2
	c0-1-0.5-2.3,0.7-2.7c0.8-0.3,1.7,0.5,2.4,1.1c17.6,12.8,35.1,25.6,52.7,38.4c0.8,0.6,2,1.1,1.8,2.2c-0.1,1.1-1.4,1.1-2.2,1.4
	c-17.5,5.7-35,11.4-52.4,17.1c-2.5,0.8-3-0.1-3-2.4C154.2,139.4,154.2,130.2,154.2,120.9z M94.1,135.1c0.8,0.2,1.4,0.3,2,0.5
	c17.4,5.7,34.8,11.3,52.2,17c3.4,1.1,3.5,1.2,1.3,4.2c-10.7,14.8-21.5,29.6-32.2,44.4c-0.5,0.7-0.9,1.5-1.8,1.5c-1,0-1.1-1-1.4-1.8
	c-6.9-21.2-13.7-42.3-20.6-63.5C93.4,136.6,92.6,135.4,94.1,135.1z M153.4,205.1c-10.7,0-21.4,0-32.1,0c-1.1,0-2.5,0.4-3.2-0.5
	c-0.8-1.2,0.6-2,1.2-2.8c10.7-14.7,21.4-29.4,32-44.2c1.5-2.1,2.5-1.9,3.9,0c10.8,14.9,21.6,29.8,32.4,44.7c0.5,0.7,1.6,1.4,1.1,2.3
	c-0.5,0.9-1.7,0.5-2.5,0.5C175.2,205.1,164.3,205.1,153.4,205.1z M152.2,121c0,9.2-0.1,18.3,0,27.5c0,2.7-0.8,3.3-3.4,2.5
	c-17.1-5.6-34.2-11.2-51.3-16.8c-1.1-0.4-2.7-0.4-3-1.7c-0.2-1.2,1.3-1.7,2.2-2.3c14-10.2,28.1-20.4,42.1-30.6
	c3.4-2.5,6.9-5.1,10.3-7.5c0.7-0.5,1.4-1.6,2.3-1.1c0.9,0.5,0.6,1.6,0.6,2.5C152.2,102.7,152.2,111.8,152.2,121z M152.4,292
	c-10.5,0-21,0-31.5,0c-0.9,0-2.1,0.4-2.6-0.5c-0.6-1.1,0.7-1.8,1.4-2.4c9.8-9.6,19.6-19.3,29.5-28.9c4.1-3.9,4.1-3.8,8,0.1
	c9.6,9.6,19.2,19.2,28.7,28.8c0.7,0.7,2,1.3,1.4,2.4c-0.4,0.8-1.7,0.5-2.6,0.5C174,292,163.2,292,152.4,292z M219.6,120.7
	c-4.1-1.9-7.4-4.9-11-7.5c-14.4-10.4-28.8-20.9-43.1-31.3c-0.8-0.6-2.2-0.9-1.9-2.1c0.2-1.1,1.6-0.6,2.4-0.8
	c11.8-1.8,23.7-3.6,35.5-5.4c3-0.5,6-0.8,9-1.3c1.4-0.2,2.1,0.2,2.3,1.6c2.4,15.3,4.8,30.7,7.2,46
	C219.9,120.1,219.8,120.3,219.6,120.7z M153.3,218.1c10.5,0,21,0,31.5,0c0.9,0,2.3-0.5,2.7,0.7c0.3,0.9-0.8,1.5-1.4,2.2
	c-10.2,10.2-20.4,20.3-30.5,30.5c-1.7,1.7-2.9,2-4.7,0.1c-10.2-10.3-20.5-20.5-30.7-30.8c-0.6-0.6-1.8-1.2-1.3-2.2
	c0.4-0.9,1.6-0.6,2.5-0.6C132,218.1,142.7,218.1,153.3,218.1z M86.5,120.5c1-6.6,2-13.2,3.1-19.8c1.3-8.5,2.8-17,4-25.6
	c0.3-2.1,0.9-3.1,3.2-2.8c5.7,0.9,11.4,1.7,17.2,2.6c8.9,1.4,17.9,2.8,26.8,4.2c0.7,0.1,1.6-0.2,1.8,0.7c0.3,1-0.7,1.3-1.3,1.8
	c-8.2,6-16.4,12.1-24.6,18c-9,6.6-18.1,13.1-27.2,19.6C88.6,119.9,88,120.8,86.5,120.5z M272.3,230.8c-22.8-7.4-44.7-14.5-66.7-21.6
	c0.6-1.4,1.6-1.7,2.5-2.1c13-6.5,26-13,39-19.6c2-1,3.1-1,4.3,1.3c6.4,12.8,13,25.6,19.4,38.4C271.3,228,271.6,229,272.3,230.8z
	 M229.5,139.2c1,0.3,1.7,0.5,2.4,0.7c19.7,6.4,39.4,12.9,59.1,19.3c0.8,0.3,1.6,0.5,2.3,0.8c1.4,0.6,1.1,1.2,0.1,1.9
	c-0.4,0.3-0.9,0.5-1.3,0.7c-12.8,6.5-25.6,12.9-38.3,19.5c-2.3,1.2-3.4,0.9-4.6-1.5c-6.4-12.9-13-25.8-19.5-38.6
	C229.1,141.2,228.1,140,229.5,139.2z M80.2,140.9c1.2,0.4,1.2,1.6,1.5,2.5c3,9.2,6,18.4,9,27.5c3.5,10.8,7.1,21.6,10.6,32.4
	c0.3,0.9,1.2,2,0.2,2.8c-0.7,0.6-1.7-0.3-2.5-0.7c-13.1-6.6-26.1-13.3-39.2-19.9c-1.8-0.9-2-1.8-1.1-3.5
	c6.7-13.1,13.4-26.3,20.1-39.4C79,142,79.3,141.2,80.2,140.9z M274.4,228.5c-0.8,0-1-0.7-1.3-1.2c-1.3-2.4-2.7-4.8-3.9-7.2
	c-5.4-10.6-10.8-21.2-16.3-31.7c-1.2-2.4-1.1-3.6,1.5-4.9c12.4-6.1,24.7-12.5,37-18.7c1.2-0.6,2.7-2.1,3.8-1.3
	c1.2,0.9-0.1,2.6-0.6,3.9c-5.9,18.1-11.8,36.1-17.6,54.2c-0.6,1.8-1.1,3.7-1.7,5.5C275.2,227.7,275.2,228.4,274.4,228.5z M91.9,73.6
	c-1.4,9-2.8,18.1-4.2,27.1c-0.9,5.8-1.9,11.6-2.8,17.4c-0.1,0.8,0.2,1.8-0.8,2c-0.8,0.2-1.1-0.8-1.5-1.3
	C76.3,110.2,70,101.6,63.7,93S51.2,75.7,44.9,67.1c-0.6-0.8-1.7-1.8-1.2-2.6c0.6-1.2,1.8-0.1,2.7,0C60.9,66.7,75.5,69,90,71.2
	C91.4,71.4,92.2,72,91.9,73.6z M100.2,20.5c-0.7,4.6-1.3,8.6-1.9,12.5c-1.8,11.4-3.7,22.8-5.4,34.3c-0.3,1.6-0.6,2.2-2.5,1.9
	c-11.3-1.8-22.7-3.5-34-5.3c-3.4-0.5-6.8-1.1-10.2-1.6c-0.8-0.1-1.8-0.2-2-1.1c-0.1-0.7,0.8-1.1,1.3-1.6
	C60.4,49,75.3,38.2,90.2,27.4C93.2,25.2,96.1,22.7,100.2,20.5z M55.1,183.2c-0.6-0.3-1.1-0.5-1.5-0.7c-9.7-5.4-19.8-10-29.6-15.1
	c-3.2-1.6-6.3-3.3-9.4-5c-0.8-0.4-2-0.6-1.8-1.7c0.1-0.9,1.3-0.9,2-1.2c10.5-3.5,21-6.9,31.6-10.3c9.5-3.1,19-6.1,28.5-9.1
	c0.9-0.3,2.1-1.1,2.8-0.3c0.8,0.9-0.2,1.9-0.6,2.7c-6.2,12.3-12.5,24.7-18.8,37C57.4,180.8,56.8,182.6,55.1,183.2z M100.8,209.2
	c-22.2,7.2-43.9,14.3-65.6,21.4c-0.8-1.3,0-2.1,0.4-2.9c6.6-13.1,13.3-26.1,19.9-39.2c0.8-1.6,1.5-2.4,3.5-1.4
	c13.3,6.9,26.5,13.7,39.8,20.6C99.3,207.9,99.7,208.4,100.8,209.2z M214.8,74c-0.5-1.9,0.5-2.5,2.2-2.8c14.6-2.3,29.3-4.6,43.9-6.9
	c0.7-0.1,1.5-0.7,2,0c0.5,0.8-0.2,1.5-0.7,2.2c-8.9,12.2-17.9,24.4-26.8,36.7c-3.8,5.2-7.5,10.4-11.2,15.6c-0.4,0.6-0.7,1.5-1.5,1.2
	c-0.7-0.2-0.9-1-1-1.8c-2.3-14.4-4.5-28.9-6.8-43.3C214.7,74.6,214.8,74.3,214.8,74z M116.2,254.9c0-10.5,0-21,0-31.5
	c0-0.9-0.4-2.1,0.5-2.5c1.1-0.6,1.7,0.7,2.4,1.4c10.2,10.1,20.3,20.4,30.5,30.4c2,2,1.6,3.2-0.2,4.9c-10.2,9.9-20.4,19.9-30.6,29.9
	c-0.6,0.6-1.1,1.5-1.9,1.3c-1.1-0.3-0.7-1.5-0.7-2.4C116.2,275.9,116.2,265.4,116.2,254.9z M206.6,21.1c1.7-0.1,2.8,1.1,3.9,2
	c16.5,12,33,24,49.5,36c0.3,0.2,0.7,0.5,0.9,0.8c0.4,0.5,1.4,0.8,1.1,1.6c-0.3,0.7-1.1,0.8-1.8,0.9c-5.9,0.9-11.8,1.9-17.7,2.8
	c-8.6,1.3-17.3,2.6-25.9,4c-2.1,0.3-2.8-0.3-3.1-2.2c-2.4-15.1-4.8-30.3-7.2-45.4C206.4,21.6,206.5,21.4,206.6,21.1z M32.2,229
	c-1.5-1.7-1.8-3.8-2.4-5.7c-5.2-15.8-10.3-31.7-15.5-47.5c-1.1-3.4-2.2-6.8-3.2-10.2c-0.2-0.6-0.4-1.6-0.1-2c0.5-0.7,1.3,0,1.9,0.3
	c13.3,6.7,26.7,13.5,40,20.3c1.4,0.7,1.7,1.5,1,2.9c-7,13.8-14.1,27.5-21.1,41.3C32.8,228.5,32.6,228.6,32.2,229z M142.9,77.6
	c-13.6-2.1-27.1-4.2-40.5-6.3c-1.6-0.3-3.2-0.7-4.8-0.7c-2.9,0-3.1-1.8-2.7-3.9c1.4-9.1,2.9-18.2,4.3-27.3c0.8-4.8,1.6-9.6,2.3-14.4
	c0.2-1.2,0.1-2.7,1.3-3.1c1-0.3,1.5,1.2,2,2c8.6,11.7,17.1,23.5,25.6,35.2c3.9,5.3,7.7,10.7,11.6,16
	C142.6,75.7,143.1,76.3,142.9,77.6z M165.5,77.1c-0.6-0.1-1.3,0.2-1.5-0.6c-0.2-0.8,0.3-1.3,0.7-1.9c4.9-6.7,9.8-13.5,14.7-20.2
	c7.2-9.9,14.3-19.7,21.5-29.6c0.4-0.6,0.8-1.2,1.2-1.7c0.5-0.5,0.9-1.4,1.6-1.2c0.7,0.2,0.9,1,1,1.8c2.3,14.6,4.5,29.3,6.9,43.9
	c0.3,2.1-0.3,2.7-2.2,3c-14.4,2.1-28.9,4.4-43.3,6.6C166,77,165.7,77.1,165.5,77.1z M226.5,140.8c2.4,4.4,4.7,8.6,6.9,12.8
	c4.9,9.6,9.6,19.3,14.6,28.9c1.1,2.1-0.1,2.5-1.4,3.1c-13.1,6.6-26.2,13.1-39.3,19.6c-0.7,0.3-1.5,1.1-2.2,0.4
	c-0.6-0.6-0.1-1.5,0.2-2.3c3.9-11.8,7.7-23.6,11.6-35.4c2.6-7.9,5.1-15.9,7.7-23.8C225,143.1,225.1,141.8,226.5,140.8z M190.1,255.2
	c0,10.5,0,21,0,31.5c0,0.9,0.4,2.1-0.5,2.5c-1.1,0.5-1.7-0.7-2.4-1.4c-10.2-10.1-20.3-20.3-30.5-30.4c-1.6-1.6-1.5-2.6,0-4.2
	c10.2-10.1,20.4-20.3,30.5-30.4c0.6-0.6,1.3-1.8,2.2-1.5c1.2,0.4,0.7,1.8,0.7,2.7C190.1,234.4,190.1,244.8,190.1,255.2z M185.1,15
	c-3.3,2.6-7,4.3-10.5,6.3c-6.5,3.8-13.1,7.5-19.5,11.3c-1.3,0.8-2.4,0.8-3.6,0.1c-9.5-5.5-19-11-28.5-16.4c-0.5-0.3-1.3-0.5-1-1.3
	c0.3-0.7,1-0.5,1.6-0.6c0.7,0,1.4,0,2.1,0c18.6,0,37.1,0,55.7,0C182.5,14.3,183.8,13.9,185.1,15z M155,72.4
	c-1.1-1.4-0.8-2.3-0.8-3.2c0-10.3,0-20.6,0-30.9c0-2.2,0.7-3.5,2.7-4.6c9.5-5.3,18.9-10.8,28.3-16.3c0.3-0.2,0.7-0.3,1.6,0
	C176.2,35.6,165.7,53.8,155,72.4z M272.6,79.4c-1.2,5.9-2.4,11.9-3.7,17.8c-1.1,5.4-2.4,10.7-3.5,16.1c-0.3,1.2-0.6,2-1.9,2.5
	c-10.9,3.5-21.9,7.1-32.8,10.6c-0.2,0.1-0.4-0.1-1.3-0.3c14.3-15.9,28.3-31.5,42.4-47.1C272.1,79.1,272.4,79.2,272.6,79.4z
	 M34.1,79.2c14.5,16,28.5,31.6,42.6,47.2c-1.3,1-2.2,0.3-2.9,0.1c-9.9-3.2-19.7-6.4-29.6-9.6c-1.9-0.6-3.1-1.5-3.5-3.6
	c-2.2-10.8-4.6-21.7-6.8-32.5C33.8,80.5,33.9,80.2,34.1,79.2z M46.1,246.3c9.1,1,17.5,2,25.9,2.9c2.6,0.3,5.3,0.7,7.9,0.7
	c2.2,0,3.3,0.9,4.1,2.8c4.3,9.7,8.6,19.3,12.9,28.9c0.3,0.6,0.9,1.4,0.2,1.9c-0.9,0.7-1.4-0.3-2-0.8c-14.8-10.7-29.6-21.4-44.3-32.2
	C49.2,249.4,47.3,248.8,46.1,246.3z M12.1,140.4c-0.7-1.5,0-2.4,0.3-3.3c4.5-13.8,9.1-27.6,13.6-41.4c1.4-4.2,2.7-8.5,4.1-12.8
	c0.2-0.7,0.3-1.8,1.3-1.7c0.9,0.1,0.7,1.1,0.9,1.7c2.2,10.5,4.5,21,6.8,31.6c0.2,1,0.5,1.8-0.5,2.7c-7.9,7.1-15.6,14.2-23.5,21.3
	C14.2,139.2,13.2,139.7,12.1,140.4z M292.7,142.4c-7.7-1.6-15.5-3.2-23.2-4.8c-12.1-2.6-24.2-5.2-36.3-7.8c-0.7-0.1-1.7,0-1.8-0.8
	c-0.1-1.1,1-1.1,1.7-1.3c9.9-3.3,19.9-6.5,29.8-9.8c2.1-0.7,3.8,0.1,5.2,1.4c8.3,7.5,16.5,15,24.7,22.5
	C292.9,142,292.8,142.2,292.7,142.4z M294.2,139.6c-1.3-0.4-2.4-1.3-3.5-2.2c-7.4-6.8-14.8-13.6-22.3-20.3c-1.1-1-1.5-1.8-1.2-3.3
	c2.3-10.3,4.5-20.6,6.7-30.9c0.2-0.8-0.2-2.2,1-2.2c1,0,1.1,1.3,1.3,2.1c3.9,12,7.7,24,11.6,36c2,6.3,4.1,12.5,6.2,18.8
	C294.5,138.1,294.9,138.8,294.2,139.6z M202.7,218.1c5.4,2.4,10.6,4.6,15.8,6.9c12.8,5.7,25.6,11.4,38.4,17.1
	c0.8,0.4,2.3,0.6,2.1,1.8c-0.2,1.1-1.7,0.9-2.7,1c-9.1,1-18.1,1.9-27.2,3c-3.8,0.4-6.6-0.2-9-3.8c-5.2-7.9-11-15.4-16.5-23
	C203,220.3,202.3,219.7,202.7,218.1z M199.9,219.8c3.7,3.5,5.9,7.5,8.6,11.1c4.3,5.6,8.2,11.4,12.3,17c0.6,0.9,1.1,1.6,0.5,2.7
	c-4.5,10-9,20-13.5,30c-0.2,0.4-0.6,0.8-0.9,1.2C205.8,280.4,199.3,224.6,199.9,219.8z M80.1,247.9c-6.9-0.7-13.7-1.4-20.6-2.1
	c-3.2-0.3-6.4-0.7-9.7-1c-0.9-0.1-2.1,0.1-2.4-0.9c-0.3-1.1,1-1.2,1.8-1.5c17.3-7.7,34.7-15.5,52-23.2c0.9-0.4,1.9-1.5,2.7-0.5
	c0.6,0.8-0.6,1.6-1.1,2.3c-6,8.3-12.1,16.6-18,24.9C83.6,247.8,82,248.1,80.1,247.9z M106.5,220c0.8,3.2-0.1,6-0.4,8.7
	c-1.4,14.3-3.1,28.6-4.7,42.9c-0.3,2.9-0.5,5.9-0.7,8.8c-0.1,0.7-0.1,1.6-1,1.7c-0.6,0.1-1-0.7-1.2-1.2c-4.3-9.9-8.7-19.7-13-29.6
	c-0.5-1.2-0.7-2.3,0.2-3.4c6.6-9,13.1-18.1,19.7-27.1C105.6,220.5,105.9,220.4,106.5,220z M151.4,72.1c-10.7-18.5-21.1-36.5-31.8-55
	c3.1,0.6,5,2.1,6.9,3.2c7.3,4.2,14.5,8.5,21.9,12.6c2.7,1.5,3.9,3.2,3.9,6.5c-0.2,9.6-0.1,19.1-0.1,28.7
	C152.2,69.1,152.3,70.2,151.4,72.1z M75.3,129.6c-20.9,4.6-41.2,9-61,13.3c1.6-1.9,3.1-4.4,5.2-6.3c5.8-5.4,11.8-10.5,17.6-16
	c2.3-2.2,4.5-2.9,7.6-1.8c8.7,3,17.6,5.8,26.3,8.6C72.3,127.9,73.6,128.1,75.3,129.6z M209.8,283.9c0.3-4.3,2.2-7.6,3.7-11.1
	c3-7,6.2-13.9,9.3-20.9c0.5-1.1,1-1.9,2.4-2c8.5-0.8,16.9-1.7,25.4-2.5c2.4-0.2,4.7-1.3,7.9,0.1C242,259.9,225.9,271.9,209.8,283.9z
	"/>
</svg>
