<?xml version="1.0" encoding="utf-8"?>
<!-- Generator: Adobe Illustrator 27.1.1, SVG Export Plug-In . SVG Version: 6.00 Build 0)  -->
<svg version="1.1" id="Layer_1" xmlns="http://www.w3.org/2000/svg" xmlns:xlink="http://www.w3.org/1999/xlink" x="0px" y="0px"
	 width="44px" height="44px" viewBox="0 0 44 44" style="enable-background:new 0 0 44 44;" xml:space="preserve">
<g>
	<path d="M21.7,10.8c3.2,0,5.9,0.6,8.5,1.9c2.1,1.1,3.9,2.6,5.2,4.7c0.9,1.4,1.4,3,1.5,4.7c0.1,2.4-0.6,4.6-2,6.5
		c-1.3,1.7-3,3-4.9,4c-2.8,1.4-5.8,1.9-9,1.8c-0.9-0.1-1.8-0.2-2.8-0.4c-0.1,0-0.2,0-0.3,0.1c-1.4,0.9-2.8,1.8-4.1,2.7
		c-1,0.6-2.2,0.4-2.8-0.6c-0.2-0.4-0.3-0.8-0.3-1.2c0.1-1.4,0.2-2.9,0.4-4.3c0-0.1,0-0.2-0.1-0.3c-1.1-1-2-2.2-2.7-3.5
		c-1.6-3.4-1.3-6.7,0.7-9.8c1.2-1.8,2.8-3.2,4.7-4.3c2-1.1,4.1-1.7,6.4-2C20.7,10.9,21.3,10.8,21.7,10.8z M12.6,35.2
		c0.1-0.1,0.1-0.1,0.2-0.1c1.4-0.9,2.7-1.8,4.1-2.7c0.5-0.3,1-0.4,1.5-0.3c1.8,0.4,3.6,0.5,5.5,0.3c2.1-0.2,4-0.8,5.8-1.9
		c1.7-1,3.1-2.2,4-3.9c1-1.6,1.3-3.4,1-5.3c-0.3-1.6-1-2.9-2-4.1c-1.5-1.7-3.3-2.8-5.4-3.5c-2.5-0.9-5.1-1.1-7.7-0.7
		c-2.1,0.3-4,1-5.8,2.1c-1.4,0.9-2.6,2-3.5,3.5c-1.4,2.3-1.5,4.8-0.4,7.3c0.5,1.2,1.4,2.3,2.4,3.2c0.5,0.5,0.7,1,0.7,1.7
		c-0.1,1.2-0.2,2.4-0.3,3.6C12.7,34.6,12.6,34.9,12.6,35.2z"/>
	<path d="M14.4,24.7c-1.1,0-2-0.9-2-2.1c0-1.1,0.9-2,2.1-2c1.1,0,2,0.9,1.9,2C16.4,23.8,15.5,24.7,14.4,24.7z"/>
	<path d="M22,20.7c1.1,0,2,0.9,2,2c0,1.1-0.9,2-2,2c-1.1,0-2-0.9-2-2C20,21.5,20.9,20.6,22,20.7z"/>
	<path d="M29.5,24.7c-1.1,0-2-0.9-2-2c0-1.1,0.9-2,2-2c1.1,0,2,0.9,2,2C31.5,23.8,30.6,24.7,29.5,24.7z"/>
</g>
</svg>
