<?xml version="1.0" encoding="utf-8"?>
<!-- Generator: Adobe Illustrator 27.0.1, SVG Export Plug-In . SVG Version: 6.00 Build 0)  -->
<svg version="1.1" id="Layer_1" xmlns="http://www.w3.org/2000/svg" xmlns:xlink="http://www.w3.org/1999/xlink" x="0px" y="0px"
	 width="44px" height="44px" viewBox="0 0 44 44" style="enable-background:new 0 0 44 44;" xml:space="preserve">
<style type="text/css">
	.st0{fill-rule:evenodd;clip-rule:evenodd;fill:#010101;}
	.st1{fill:#010101;}
</style>
<g>
	<path class="st1" d="M36,18.6c0-3.4-2.7-6.1-6.1-6.1H14.1c-3.4,0-6.1,2.7-6.1,6.1v6.9c0,3.4,2.7,6.1,6.1,6.1h15.7
		c3.4,0,6.1-2.7,6.1-6.1V18.6z M27.3,22.2l-7,3.5c-0.3,0.1-1.2-0.1-1.2-0.4v-7.1c0-0.3,1-0.5,1.2-0.4l6.7,3.6
		C27.3,21.6,27.6,22,27.3,22.2z"/>
</g>
</svg>
